…
# 3. Run it!
results <- collect(workflow)
print(results)
# A tibble: 6 × 4
#   subject condition score   .ok
#   <chr>   <chr>     <dbl> <lgl>
# 1 s01     A          98.2  TRUE
# 2 s01     B         102.4  TRUE
# ... (4 more rows)
```
…
